id,name,model_id:id,group_id:id,perm_read,perm_write,perm_create,perm_unlink

school_fees_admin,school.fees.group_school_administration,model_school_fees,genext_school.group_school_administration,1,1,1,1
product_template_admin,product.template.group_school_administration,model_product_template,genext_school.group_school_administration,1,1,1,1
account_invoice_admin,account.invoice.group_school_administration,model_account_invoice,genext_school.group_school_administration,1,1,1,1
account_invoice_line_admin,account.invoice.line.group_school_administration,model_account_invoice_line,genext_school.group_school_administration,1,1,1,1
account_payment_line_admin,account.payment.line.group_school_administration,model_account_payment_line,genext_school.group_school_administration,1,1,1,1
account_payment_admin,account.payment.group_school_administration,model_account_payment,genext_school.group_school_administration,1,1,1,1
email_config_admin,email.config.group_school_administration,model_email_config,genext_school.group_school_administration,1,1,1,1
email_email_admin,email.email.group_school_administration,model_email_email,genext_school.group_school_administration,1,1,1,1


school_fees_teacher,school.fees.group_school_teacher,model_school_fees,genext_school.group_school_teacher,0,0,0,0
product_template_teacher,product.template.group_school_teacher,model_product_template,genext_school.group_school_teacher,0,0,0,0
account_invoice_teacher,account.invoice.group_school_teacher,model_account_invoice,genext_school.group_school_teacher,0,0,0,0
account_invoice_line_teacher,account.invoice.line.group_school_teacher,model_account_invoice_line,genext_school.group_school_teacher,0,0,0,0


school_fees_parent,school.fees.group_school_parent,model_school_fees,genext_school.group_school_parent,1,0,0,0
product_template_parent,product.template.group_school_parent,model_product_template,genext_school.group_school_parent,1,0,0,0
account_invoice_parent,account.invoice.group_school_parent,model_account_invoice,genext_school.group_school_parent,1,0,0,0
account_invoice_line_parent,account.invoice.line.group_school_parent,model_account_invoice_line,genext_school.group_school_parent,1,0,0,0

account_payment_parent,account.payment.group_school_parent,model_account_payment,genext_school.group_school_parent,1,0,0,0
account_payment_line_parent,account.payment.line.group_school_parent,model_account_payment_line,genext_school.group_school_parent,1,0,0,0
email_email_parent,email.email.group_school_parent,model_email_email,genext_school.group_school_parent,1,1,1,1
email_config_parent,email.config.group_school_parent,model_email_config,genext_school.group_school_parent,1,1,1,1


school_fees_student,school.fees.group_school_student,model_school_fees,genext_school.group_school_student,1,0,0,0
product_template_student,product.template.group_school_student,model_product_template,genext_school.group_school_student,1,0,0,0
account_invoice_student,account.invoice.group_school_student,model_account_invoice,genext_school.group_school_student,1,0,0,0
account_invoice_line_student,account.invoice.line.group_school_student,model_account_invoice_line,genext_school.group_school_student,1,0,0,0
account_payment_student,account.payment.group_school_student,model_account_payment,genext_school.group_school_student,1,0,0,0
account_payment_line_student,account.payment.line.group_school_student,model_account_payment_line,genext_school.group_school_student,1,0,0,0



school_fees_others,school.fees.group_school_others,model_school_fees,genext_school.group_school_others,1,1,1,1
product_template_others,product.template.group_school_others,model_product_template,genext_school.group_school_others,1,1,1,1
account_invoice_others,account.invoice.group_school_others,model_account_invoice,genext_school.group_school_others,1,1,1,1
account_invoice_line_others,account.invoice.line.group_school_others,model_account_invoice_line,genext_school.group_school_others,1,1,1,1
account_payment_line_others,account.payment.line.group_school_others,model_account_payment_line,genext_school.group_school_others,1,1,1,1
email_config_others,email.config.group_school_others,model_email_config,genext_school.group_school_others,1,1,1,1
email_email_others,email.email.group_school_others,model_email_email,genext_school.group_school_others,1,1,1,1